…
```
## Warning: Expected 12 pieces. Missing pieces filled with `NA` in 7270 rows [1, 2,
## 3, 4, 5, 6, 7, 8, 9, 10, 11, 12, 13, 14, 15, 16, 17, 18, 19, 20, ...].
```

```
## # A tibble: 7,271 x 15
##    year_added country1 country2 country3 country4 country5 country6 country7
##    <chr>      <chr>    <chr>    <chr>    <chr>    <chr>    <chr>    <chr>   
##  1 2020       Brazil   <NA>     <NA>     <NA>     <NA>     <NA>     <NA>    
##  2 2016       Mexico   <NA>     <NA>     <NA>     <NA>     <NA>     <NA>    
##  3 2018       Singapo… <NA>     <NA>     <NA>     <NA>     <NA>     <NA>    
##  4 2017       United … <NA>     <NA>     <NA>     <NA>     <NA>     <NA>    
##  5 2020       United … <NA>     <NA>     <NA>     <NA>     <NA>     <NA>    
##  6 2017       Turkey   <NA>     <NA>     <NA>     <NA>     <NA>     <NA>    
##  7 2020       Egypt    <NA>     <NA>     <NA>     <NA>     <NA>     <NA>    
##  8 2019       United … <NA>     <NA>     <NA>     <NA>     <NA>     <NA>    
##  9 2019       India    <NA>     <NA>     <NA>     <NA>     <NA>     <NA>    
## 10 2017       India    <NA>     <NA>     <NA>     <NA>     <NA>     <NA>    
## # … with 7,261 more rows, and 7 more variables: country8 <chr>, country9 <chr>,
## #   country10 <chr>, country11 <chr>, country12 <chr>, show_id <chr>,
## #   type <chr>
```
…
```r
year_country_long <- year_country %>% 
  pivot_longer(cols = starts_with("country"),
               names_to = "country_n",
               values_to = "country") %>% 
  drop_na(country) %>% 
  select(-country_n) %>% 
  mutate_at(vars(year_added, country, type), list(as.factor)) %>% 
  arrange(year_added, country) %>% 
  print()
```

```
## # A tibble: 9,054 x 4
##    year_added show_id type    country      
##    <fct>      <chr>   <fct>   <fct>        
##  1 2008       s1766   TV Show United States
##  2 2008       s7114   Movie   United States
##  3 2009       s3249   Movie   Denmark      
##  4 2009       s5766   Movie   United States
##  5 2010       s3841   Movie   United States
##  6 2011       s2042   Movie   France       
##  7 2011       s2042   Movie   Mexico       
##  8 2011       s2042   Movie   Spain        
##  9 2011       s233    Movie   United States
## 10 2011       s309    Movie   United States
## # … with 9,044 more rows
```
…
